EDI_BBE_20190122_1
tablename	ActFlag	Created	Changed	BbeId	SecId	Exchgcd	Curencd	BbgexhId	Bbgexhtk
BBE	U	2012/10/11	2019/01/22	268910	348361			BBG00009L283	SPRTLN F 03/28/25 A4
BBE	U	2018/09/24	2019/01/22	1248281	5690317			BBG00M0TFPZ7	WOWAIR F 09/24/23 EMTN
BBE	U	2018/11/05	2019/01/22	1268531	5736987			BBG00MFLWBF2	SWTB 0 02/20/19 1902
BBE	U	2018/12/17	2019/01/22	1305784	5773253			BBG00MQ4KRF6	BACR V0 12/27/23 GMTO
BBE	U	2018/12/17	2019/01/22	1305793	5773267			BBG00MRH40M5	BACR V0 12/31/21 GMT9
BBE	U	2019/01/14	2019/01/22	1316752	5806844			BBG00MZ5C8X4	GS 5.5 01/14/22 Dmtn
EDI_ENDOFFILE
