EDI_CONV_20190122_1
TableName	Actflag	Created	Changed	ConvID	SecID	ISIN	Recdate	FromDate	ToDate	RatioNew	RatioOld	ConvCurrency	CurPair	Price	MandOptFlag	ResSecID	ResSectyCD	ResISIN	ResIssuername	ResSecurityDesc	Fractions	FXrate	PartFinalFlag	ConvType	RDID	PriceAsPercent	AmountConverted	SettlementDate	ExpTime	ExpTimeZone	Notes
CONV	I	2019/01/22	2019/01/22	121987	5027809	XS1555627220		2019/02/21	2019/02/21														F	MAT							
CONV	I	2019/01/22	2019/01/22	121989	5045180	XS1564466024		2019/02/21	2019/02/21														F	MAT							
CONV	I	2019/01/22	2019/01/22	122003	5430464	US83368JVW79		2019/02/21	2019/02/21														F	MAT							
CONV	I	2019/01/22	2019/01/22	122009	5436053	XS1766600156		2019/02/21	2019/02/21														F	MAT							
CONV	I	2019/01/22	2019/01/22	122010	5436064	XS1766600230		2019/02/21	2019/02/21														F	MAT							
CONV	I	2019/01/22	2019/01/22	122011	5436081	XS1766600313		2019/02/21	2019/02/21														F	MAT							
CONV	I	2019/01/22	2019/01/22	122012	5436085	XS1766600404		2019/02/21	2019/02/21														F	MAT							
CONV	I	2019/01/22	2019/01/22	122014	5436406	XS1766486945		2019/02/21	2019/02/21														F	MAT							
CONV	I	2019/01/22	2019/01/22	122015	5436620	XS1766443979		2019/02/21	2019/02/21														F	MAT							
CONV	I	2019/01/22	2019/01/22	122042	5440398	XS1741432857		2019/02/21	2019/02/21														F	MAT							
CONV	I	2019/01/22	2019/01/22	122052	5442107	XS1741394669		2019/02/21	2019/02/21														F	MAT							
CONV	I	2019/01/22	2019/01/22	122053	5443657	XS1769991875		2019/02/21	2019/02/21														F	MAT							
CONV	I	2019/01/22	2019/01/22	122057	5444827	XS1750039163		2019/02/21	2019/02/21														F	MAT							
EDI_ENDOFFILE
