EDI_MPAY_20190122_1
TableName	Actflag	AnnounceDate	Acttime	EventType	EventID	OptionID	SerialID	ResSectyCD	ResSecID	ResISIN	ResIssuername	ResSecurityDesc	RatioNew	RatioOld	Fractions	MinOfrQty	MaxOfrQty	MinQlyQty	MaxQlyQty	Paydate	CurenCD	MinPrice	MaxPrice	TndrStrkPrice	TndrStrkStep	Paytype	DutchAuction	DefaultOpt	OptElectionDate	OedExpTime	OedExpTimeZone	WrtExpTime	WrtExpTimeZone
EDI_ENDOFFILE
