EDI_SEDOL_20190122_1
TableName	Actflag	Created	Changed	SedolId	SecID	ISIN	CntryCD	Sedol	Defunct	RcntryCD
SEDOL	U	2018/12/21	2019/01/22	2038175	5610737	DE000A14JY62	DE	BDTYYB2	T	DE
SEDOL	U	2019/01/08	2019/01/22	2043351	5803422	AU3CB0259919	DE	BGSDPM9	F	ZZ
SEDOL	U	2009/01/17	2019/01/22	454712	1290771	DE000A0L1CY5	DE	B3L2GF2	T	DE
SEDOL	U	2019/01/08	2019/01/22	2043450	5803492	XS1934544534	LU	BGSCTG8	F	SE
SEDOL	U	2009/01/22	2019/01/22	456353	1294524	DE0001040624	DE	B3L47B1	T	DE
SEDOL	U	2011/05/17	2019/01/22	1039895	2693888	FR0011050764	LU	B4PRR02	T	FR
SEDOL	U	2012/01/13	2019/01/22	1310454	3444433	XS0731681556	LU	B7KGVV4	T	NL
SEDOL	U	2012/05/17	2019/01/22	1341784	2693888	FR0011050764	FR	B8D7PJ7	T	FR
SEDOL	U	2012/10/22	2019/01/22	1380026	3444433	XS0731681556	DE	B8GN3D2	T	NL
SEDOL	U	2012/10/24	2019/01/22	1381077	2693888	FR0011050764	DE	B7ZZWJ1	T	FR
SEDOL	U	2012/11/10	2019/01/22	1387016	3444433	XS0731681556	IT	B8DNK34	T	NL
SEDOL	U	2013/01/15	2019/01/22	1404245	3962592	JP372155AD17	ZZ	B7YWHR6	T	ZZ
SEDOL	U	2013/07/13	2019/01/22	1449578	4073106	FR0011536614	DE	BCBJ6T0	T	FR
SEDOL	U	2014/01/10	2019/01/22	1492286	4174479	ES0413056047	ES	BJ0JRT7	T	ES
SEDOL	U	2014/01/15	2019/01/22	1493585	4179490	XS1017435782	LU	BJ38CW9	T	ZZ
SEDOL	U	2014/01/15	2019/01/22	1493972	4180044	PTBENKOM0012	LU	BJ38D82	T	PT
SEDOL	U	2014/01/17	2019/01/22	1494329	4180988	DE000AAR0173	DE	BJ4GD74	T	ZZ
SEDOL	U	2014/01/17	2019/01/22	1494333	4179715	XS1018702941	LU	BJ4GTY3	T	ZZ
SEDOL	U	2014/01/18	2019/01/22	1494596	4182429	DE000EAA0SW8	DE	BJ4XJM2	T	ZZ
SEDOL	U	2014/01/18	2019/01/22	1494597	4179715	XS1018702941	DE	BJ4X2W3	T	ZZ
SEDOL	U	2014/01/18	2019/01/22	1494613	4174479	ES0413056047	DE	BJ4X2Q7	T	ES
SEDOL	U	2014/01/18	2019/01/22	1494627	4182326	XS1019341012	GB	BJ4XD75	T	ZZ
SEDOL	U	2014/01/18	2019/01/22	1494629	4180606	XS1019331054	GB	BJ4XD97	T	ZZ
SEDOL	U	2014/01/18	2019/01/22	1494708	4179490	XS1017435782	DE	BJ4X2S9	T	ZZ
SEDOL	U	2014/01/21	2019/01/22	1495582	4183755	XS1019484390	GB	BJ59YH9	T	ZZ
SEDOL	U	2014/01/21	2019/01/22	1495805	4180044	PTBENKOM0012	DE	BJ4X2K1	T	PT
SEDOL	U	2014/02/04	2019/01/22	1498952	4185377	DE000BHY1521	DE	BJS93G8	T	ZZ
SEDOL	U	2014/05/07	2019/01/22	1529694	1358424	NO0010486772	NO	BMH4HC9	T	ZZ
SEDOL	I	2019/01/22	2019/01/22	2048553	5812595	XS1936784831	IE	BHZQRN3	F	NO
SEDOL	I	2019/01/22	2019/01/22	2048554	5816553	KR6014681912	KR	BHZS7J5	F	ZZ
SEDOL	I	2019/01/22	2019/01/22	2048555	5810837	XS1935238896	IE	BHZSD75	F	ZZ
SEDOL	I	2019/01/22	2019/01/22	2048556	5816621	XS1937105739	IE	BHZSHC8	F	ZZ
SEDOL	I	2019/01/22	2019/01/22	2048559	5818016	KR6145991917	KR	BHZSJ55	F	ZZ
SEDOL	U	2015/10/01	2019/01/22	1672392	1290771	DE000A0L1CY5	CH	BYY11K3	T	DE
SEDOL	U	2015/10/01	2019/01/22	1674430	1294524	DE0001040624	CH	BYY18X5	T	DE
SEDOL	U	2015/10/01	2019/01/22	1674620	4179715	XS1018702941	CH	BYY7K48	T	ZZ
SEDOL	U	2015/10/01	2019/01/22	1674901	3444433	XS0731681556	CH	BYXZ355	T	NL
SEDOL	U	2017/07/08	2019/01/22	1853044	5198103	XS1280743847	IE	BYYWBH3	T	ZZ
SEDOL	U	2017/07/08	2019/01/22	1853047	5198112	XS1280743920	IE	BYYWBJ5	T	ZZ
SEDOL	U	2017/07/08	2019/01/22	1853048	5198118	XS1280743680	IE	BYYWGJ0	T	ZZ
SEDOL	U	2017/11/11	2019/01/22	1884821	4183931	AT000B013230	AT	BF18966	T	ZZ
SEDOL	U	2018/01/11	2019/01/22	1900167	5389444	JP1747331J19	ZZ	BZ5ZJZ2	T	JP
SEDOL	U	2018/01/19	2019/01/22	1902381	5056660	CH0355616613	CH	BD3NGD1	T	ZZ
SEDOL	U	2018/04/14	2019/01/22	1928950	5501747	GB00BDXJMF32	ZZ	BDXJMF3	T	GB
SEDOL	U	2018/06/15	2019/01/22	1950639	5401707	ZM3000004785	ZZ	BFXBRK3	T	ZM
SEDOL	U	2018/09/22	2019/01/22	2004530	5690167	XS1828589272	IE	BD5H017	T	ZZ
SEDOL	U	2018/10/26	2019/01/22	2017969	5712725	JP1747891JA7	ZZ	BG1Y370	T	JP
SEDOL	U	2018/10/27	2019/01/22	2018136	5728660	TRFYKFK11927	ZZ	BGXQNZ2	T	TR
EDI_ENDOFFILE
