EDI_LAWST_20180309
TableName	Actflag	Created	Changed	LawstID	SecID	ISIN	IssID	EffectiveDate	LAType	Regdate
LAWST	U	2001/10/29	2009/12/04	118	483870	XS0096366686	32846	2009/12/03	CLSACT	
LAWST	U	2001/12/03	2008/03/01	152	443661	US742718DA47	37957	2008/02/29		
LAWST	U	2001/12/03	2008/03/01	152	589386	XS0300112108	37957	2008/02/29		
LAWST	U	2001/12/03	2008/03/01	152	1273385	US742718DL02	37957	2008/02/29		
LAWST	U	2001/12/03	2008/03/01	152	2222530	US742718DS54	37957	2008/02/29		
LAWST	U	2001/07/31	2009/03/13	13	1106564	US682189AG00	37171	2009/03/11		
LAWST	U	2002/02/11	2008/06/02	234	97757	US91529Y2054	40253	2005/04/12	CLSACT	
LAWST	U	2002/02/13	2010/01/13	238	169485	US097023AT22	46494	2010/01/12	CLSACT	
LAWST	U	2002/02/13	2010/01/13	238	1360466	US097023AV77	46494	2010/01/12	CLSACT	
LAWST	D	2002/03/29	2013/07/15	282	200003	XS0205436040	35134	2012/10/05	CLSACT	
LAWST	D	2002/03/29	2013/07/15	282	244212	CH0020658404	35134	2012/10/05	CLSACT	
LAWST	D	2002/03/29	2013/07/15	282	244214	CH0020658412	35134	2012/10/05	CLSACT	
LAWST	D	2002/03/29	2013/07/15	282	305488	XS0231555672	35134	2012/10/05	CLSACT	
LAWST	D	2002/03/29	2013/07/15	282	444517	US46625HAJ95	35134	2012/10/05	CLSACT	
LAWST	D	2002/03/29	2013/07/15	282	545429	XS0284840542	35134	2012/10/05	CLSACT	
LAWST	D	2002/03/29	2013/07/15	282	545434	XS0284839882	35134	2012/10/05	CLSACT	
LAWST	D	2002/03/29	2013/07/15	282	589215	XS0300190831	35134	2012/10/05	CLSACT	
LAWST	D	2002/03/29	2013/07/15	282	835469	XS0362269945	35134	2012/10/05	CLSACT	
LAWST	D	2002/03/29	2013/07/15	282	961562	US46625HHB96	35134	2012/10/05	CLSACT	
LAWST	D	2002/03/29	2013/07/15	282	1247496	XS0402785835	35134	2012/10/05	CLSACT	
LAWST	D	2002/03/29	2013/07/15	282	1357872	US46625HCE80	35134	2012/10/05	CLSACT	
LAWST	D	2002/03/29	2013/07/15	282	1368419	XS0421410621	35134	2012/10/05	CLSACT	
LAWST	D	2002/03/29	2013/07/15	282	1405987	US481247AM66	35134	2012/10/05	CLSACT	
LAWST	D	2002/03/29	2013/07/15	282	1593883	US46625HHP82	35134	2012/10/05	CLSACT	
LAWST	D	2002/03/29	2013/07/15	282	1633076	US46625HAT77	35134	2012/10/05	CLSACT	
LAWST	D	2002/03/29	2013/07/15	282	1633375	US46625HBV15	35134	2012/10/05	CLSACT	
LAWST	D	2002/03/29	2013/07/15	282	3648541	US46623EJP51	35134	2012/10/05	CLSACT	
LAWST	D	2002/03/29	2013/07/15	282	4576240	CH0290323747	35134	2012/10/05	CLSACT	
LAWST	D	2002/03/29	2013/07/15	282	5456364	XS1569763938	35134	2012/10/05	CLSACT	
LAWST	U	2002/04/11	2012/01/21	291	429731	XS0267166246	33753	2012/01/20	CLSACT	
LAWST	U	2002/04/11	2012/01/21	291	660919	XS0319640834	33753	2012/01/20	CLSACT	
LAWST	U	2002/04/26	2009/12/12	313	558576	XS0275937471	30831	2009/12/11	CLSACT	
LAWST	U	2002/04/26	2009/12/12	313	3878909	US110122AS73	30831	2009/12/11	CLSACT	
LAWST	U	2002/05/07	2013/01/05	325	169314	US060505AX21	30405	2013/01/02	CLSACT	
LAWST	U	2002/05/07	2013/01/05	325	182574	XS0178866736	30405	2013/01/02	CLSACT	
LAWST	U	2002/05/07	2013/01/05	325	256069	US060505AR52	30405	2013/01/02	CLSACT	
LAWST	U	2002/05/07	2013/01/05	325	256094	US060505BG88	30405	2013/01/02	CLSACT	
LAWST	U	2002/05/07	2013/01/05	325	656376	CA060505BY96	30405	2013/01/02	CLSACT	
LAWST	U	2002/05/07	2013/01/05	325	747500	US060505BS27	30405	2013/01/02	CLSACT	
LAWST	U	2002/05/07	2013/01/05	325	866692	US0605057654	30405	2013/01/02	CLSACT	
LAWST	U	2002/05/07	2013/01/05	325	1255162	US06050BAA98	30405	2013/01/02	CLSACT	
LAWST	U	2002/05/07	2013/01/05	325	1437907	US06051GDY26	30405	2013/01/02	CLSACT	
LAWST	U	2002/05/07	2013/01/05	325	1859317	XS0501815459	30405	2013/01/02	CLSACT	
LAWST	U	2002/05/07	2013/01/05	325	1859333	XS0501823719	30405	2013/01/02	CLSACT	
LAWST	U	2002/05/07	2013/01/05	325	2071157	US06051GED79	30405	2013/01/02	CLSACT	
LAWST	U	2002/05/07	2013/01/05	325	3917787	US06051GER65	30405	2013/01/02	CLSACT	
LAWST	U	2002/05/07	2013/01/05	325	4602415	XS1290851184	30405	2013/01/02	CLSACT	
LAWST	U	2002/06/08	2012/02/25	373	1360980	US406216AX91	34122	2012/02/24	CLSACT	
LAWST	D	2002/06/20	2007/08/11	384	169314	US060505AX21	30405	2007/04/13		
LAWST	D	2002/06/20	2007/08/11	384	182574	XS0178866736	30405	2007/04/13		
LAWST	D	2002/06/20	2007/08/11	384	256069	US060505AR52	30405	2007/04/13		
LAWST	D	2002/06/20	2007/08/11	384	256094	US060505BG88	30405	2007/04/13		
LAWST	D	2002/06/20	2007/08/11	384	656376	CA060505BY96	30405	2007/04/13		
LAWST	D	2002/06/20	2007/08/11	384	747500	US060505BS27	30405	2007/04/13		
LAWST	D	2002/06/20	2007/08/11	384	866692	US0605057654	30405	2007/04/13		
LAWST	D	2002/06/20	2007/08/11	384	1255162	US06050BAA98	30405	2007/04/13		
LAWST	D	2002/06/20	2007/08/11	384	1437907	US06051GDY26	30405	2007/04/13		
LAWST	D	2002/06/20	2007/08/11	384	1859317	XS0501815459	30405	2007/04/13		
LAWST	D	2002/06/20	2007/08/11	384	1859333	XS0501823719	30405	2007/04/13		
LAWST	D	2002/06/20	2007/08/11	384	2071157	US06051GED79	30405	2007/04/13		
LAWST	D	2002/06/20	2007/08/11	384	3917787	US06051GER65	30405	2007/04/13		
LAWST	D	2002/06/20	2007/08/11	384	4602415	XS1290851184	30405	2007/04/13		
LAWST	U	2002/07/24	2009/03/30	431	804589	US025816AQ27	29789	2009/03/27	CLSACT	
LAWST	U	2002/07/24	2009/03/30	431	1434738	US025816BA65	29789	2009/03/27	CLSACT	
LAWST	U	2002/07/25	2012/12/11	434	1669384	FR0010830042	47754	2012/02/01	CLSACT	
LAWST	U	2002/07/25	2012/12/11	434	2826021	FR0011076447	47754	2012/02/01	CLSACT	
LAWST	U	2002/07/25	2012/12/11	434	2826023	FR0011076462	47754	2012/02/01	CLSACT	
LAWST	U	2002/07/25	2012/12/11	434	3305083	FR0011157726	47754	2012/02/01	CLSACT	
LAWST	U	2002/07/25	2012/12/11	434	3445654	FR0011182559	47754	2012/02/01	CLSACT	
LAWST	U	2002/07/25	2012/12/11	434	3712037	USF1754PAB07	47754	2012/02/01	CLSACT	
LAWST	U	2002/07/25	2012/12/11	434	3712039	USF1754PAC89	47754	2012/02/01	CLSACT	
LAWST	U	2002/07/25	2012/12/11	434	3712040	USF1754PAD62	47754	2012/02/01	CLSACT	
LAWST	U	2002/07/25	2011/08/30	435	972247	US887317AC95	62692	2011/08/29	CLSACT	
LAWST	U	2002/08/14	2010/11/22	461	4054444	US071813BJ71	30469	2010/11/19	CLSACT	
LAWST	U	2002/10/03	2007/11/24	513	144016	XS0103349774	6164	2007/11/19	CLSACT	
LAWST	U	2002/10/03	2007/11/24	513	144086	US92857WAF77	6164	2007/11/19	CLSACT	
LAWST	U	2002/10/03	2007/11/24	513	155245	XS0162614167	6164	2007/11/19	CLSACT	
LAWST	U	2002/10/03	2007/11/24	513	272903	US92857WAG50	6164	2007/11/19	CLSACT	
LAWST	U	2002/10/03	2007/11/24	513	305623	XS0236598164	6164	2007/11/19	CLSACT	
LAWST	U	2002/10/03	2007/11/24	513	376640	US92857WAM29	6164	2007/11/19	CLSACT	
LAWST	U	2002/10/03	2007/11/24	513	379683	XS0257808500	6164	2007/11/19	CLSACT	
LAWST	U	2002/10/03	2007/11/24	513	428697	XS0266760965	6164	2007/11/19	CLSACT	
LAWST	U	2002/10/03	2007/11/24	513	593696	XS0304458564	6164	2007/11/19	CLSACT	
LAWST	U	2002/10/03	2007/11/24	513	3981332	US92857WBA71	6164	2007/11/19	CLSACT	
LAWST	U	2002/11/08	2011/04/14	567	4525307	US88033GCL23	39655	2011/04/13	CLSACT	
LAWST	U	2002/11/08	2011/04/14	567	4525311	USU88030AW87	39655	2011/04/13	CLSACT	
LAWST	U	2002/12/12	2009/04/24	589	4510621	US747525AG87	38090	2009/04/23	CLSACT	
LAWST	U	2003/01/04	2012/08/11	621	957783	US620076AX70	36432	2012/08/10	CLSACT	
LAWST	U	2003/01/04	2012/08/11	621	977346	US620076AZ29	36432	2012/08/10	CLSACT	
LAWST	U	2003/01/27	2012/09/06	637	269276	US256605AD85	32396	2012/09/05		
LAWST	U	2003/03/01	2006/10/03	671	162540	XS0128973590	54886	2006/10/02		
LAWST	U	2003/03/01	2006/10/03	671	183942	XS0111182597	54886	2006/10/02		
LAWST	U	2003/03/15	2008/02/18	687	165250	XS0145758040	20109	2008/02/15		
LAWST	U	2003/03/15	2008/02/18	687	215413	XS0166607282	20109	2008/02/15		
LAWST	U	2003/03/15	2008/02/18	687	368929	XS0255605825	20109	2008/02/15		
LAWST	U	2003/03/15	2008/02/18	687	425144	XS0145757588	20109	2008/02/15		
LAWST	U	2003/03/15	2008/02/18	687	575733	XS0295205347	20109	2008/02/15		
LAWST	U	2003/09/08	2012/11/29	818	174310	XS0196494743	9991	2012/11/28	CLSACT	
LAWST	U	2003/09/08	2012/11/29	818	176624	XS0198612953	9991	2012/11/28	CLSACT	
LAWST	U	2003/09/08	2012/11/29	818	179811	XS0167340552	9991	2012/11/28	CLSACT	
LAWST	U	2003/09/08	2012/11/29	818	183966	XS0172667643	9991	2012/11/28	CLSACT	
LAWST	U	2003/09/08	2012/11/29	818	328370	XS0240722313	9991	2012/11/28	CLSACT	
LAWST	U	2003/09/08	2012/11/29	818	424045	CH0026178498	9991	2012/11/28	CLSACT	
LAWST	U	2003/09/08	2012/11/29	818	582855	XS0290059582	9991	2012/11/28	CLSACT	
LAWST	U	2003/09/08	2012/11/29	818	759244	CH0037046742	9991	2012/11/28	CLSACT	
LAWST	U	2003/09/08	2012/11/29	818	814814	AU3CB0030146	9991	2012/11/28	CLSACT	
LAWST	U	2003/09/08	2012/11/29	818	815174	AU300NAB1173	9991	2012/11/28	CLSACT	
LAWST	U	2003/09/08	2012/11/29	818	1293667	US6325C1AL34	9991	2012/11/28	CLSACT	
LAWST	U	2003/09/08	2012/11/29	818	1332019	AU3CB0098697	9991	2012/11/28	CLSACT	
LAWST	U	2003/09/08	2012/11/29	818	1421896	AU3CB0112308	9991	2012/11/28	CLSACT	
LAWST	U	2003/09/08	2012/11/29	818	1646329	CH0105004086	9991	2012/11/28	CLSACT	
LAWST	U	2003/09/08	2012/11/29	818	1724326	US6325C1AZ20	9991	2012/11/28	CLSACT	
LAWST	U	2003/09/08	2012/11/29	818	1804944	US6325C1BB43	9991	2012/11/28	CLSACT	
LAWST	U	2003/09/08	2012/11/29	818	1849555	AU3CB0146157	9991	2012/11/28	CLSACT	
LAWST	U	2003/09/08	2012/11/29	818	2119615	US6325C1BC26	9991	2012/11/28	CLSACT	
LAWST	U	2003/09/08	2012/11/29	818	2563714	XS0614132438	9991	2012/11/28	CLSACT	
LAWST	U	2003/09/08	2012/11/29	818	2598369	US6325C1BL25	9991	2012/11/28	CLSACT	
LAWST	U	2003/09/08	2012/11/29	818	4050024	XS0941674268	9991	2012/11/28	CLSACT	
LAWST	U	2003/10/28	2007/12/07	846	2066545	US382550BB69	33946	2007/12/06		
LAWST	U	2003/10/28	2010/04/17	847	1072171	CH0043939245	20442	2010/04/16		
LAWST	U	2003/10/28	2010/04/17	847	3563546	DE000A1MLSR4	20442	2010/04/16		
LAWST	U	2003/10/28	2010/04/17	847	3805476	XS0784823972	20442	2010/04/16		
LAWST	U	2003/10/28	2010/04/17	847	3850266	XS0791301418	20442	2010/04/16		
LAWST	U	2003/10/28	2010/04/17	847	3937440	XS0858468415	20442	2010/04/16		
LAWST	U	2003/10/28	2010/04/17	847	3943752	XS0862681755	20442	2010/04/16		
LAWST	U	2003/10/28	2010/04/17	847	4490299	XS1218322672	20442	2010/04/16		
LAWST	U	2003/10/28	2010/04/17	847	4539989	XS1253503210	20442	2010/04/16		
LAWST	U	2003/11/25	2007/08/28	872	967101	US404119AU30	34216	2007/08/17		
LAWST	U	2003/12/02	2012/03/03	877	184067	XS0060045472	36095	2012/03/02	CLSACT	
LAWST	U	2003/12/02	2012/03/03	877	683852	XS0323955541	36095	2012/03/02	CLSACT	
LAWST	U	2004/04/09	2007/07/13	969	166065	XS0102535431	35955	2007/07/12		
LAWST	U	2004/04/09	2007/07/13	969	166067	XS0114211211	35955	2007/07/12		
LAWST	U	2004/04/09	2007/07/13	969	184062	XS0120807788	35955	2007/07/12		
LAWST	U	2004/04/09	2007/07/13	969	983410	US58013MEE03	35955	2007/07/12		
LAWST	U	2004/04/13	2012/05/12	973	1429415	US654902AC90	8194	2012/05/11	CLSACT	
LAWST	U	2004/04/13	2012/05/12	973	3922242	XS0849477178	8194	2012/05/11	CLSACT	
LAWST	U	2004/04/22	2010/01/08	980	1437936	US594918AB00	36229	2010/01/07	CLSACT	
LAWST	U	2004/05/14	2012/04/25	996	155143	XS0084543882	36124	2012/04/24	CLSACT	
LAWST	U	2004/05/14	2012/04/25	996	163326	XS0191960896	36124	2012/04/24	CLSACT	
LAWST	U	2004/05/14	2012/04/25	996	164337	XS0188689623	36124	2012/04/24	CLSACT	
LAWST	U	2004/05/14	2012/04/25	996	184081	XS0085830213	36124	2012/04/24	CLSACT	
LAWST	U	2004/05/14	2012/04/25	996	199522	XS0197079972	36124	2012/04/24	CLSACT	
LAWST	U	2004/05/14	2012/04/25	996	466495	XS0273235613	36124	2012/04/24	CLSACT	
LAWST	U	2004/05/14	2012/04/25	996	542892	XS0284049136	36124	2012/04/24	CLSACT	
LAWST	U	2004/05/14	2012/04/25	996	544462	XS0275719135	36124	2012/04/24	CLSACT	
LAWST	U	2004/05/14	2012/04/25	996	547036	XS0285384722	36124	2012/04/24	CLSACT	
LAWST	U	2004/05/14	2012/04/25	996	572695	XS0294730139	36124	2012/04/24	CLSACT	
LAWST	U	2004/05/14	2012/04/25	996	609615	US59018YUW91	36124	2012/04/24	CLSACT	
LAWST	U	2004/05/14	2012/04/25	996	758578	US59022CAP86	36124	2012/04/24	CLSACT	
LAWST	U	2004/05/14	2012/04/25	996	964417	US59018YN567	36124	2012/04/24	CLSACT	
LAWST	U	2004/05/14	2012/04/25	996	1724585	XS0329564917	36124	2012/04/24	CLSACT	
LAWST	U	2004/07/12	2008/01/05	1057	3812455	US14149YAU29	31064	2008/01/04	CLSACT	
LAWST	U	2004/07/12	2008/01/05	1057	4535749	US14149YBC12	31064	2008/01/04	CLSACT	
LAWST	D	2004/07/30	2005/04/26	1086	4054444	US071813BJ71	30469	2004/09/09		
LAWST	U	2004/07/30	2007/07/24	1087	2042541	US315405AM23	33164	2007/07/23	CLSACT	
LAWST	D	2004/08/07	2005/06/21	1100	558576	XS0275937471	30831	2005/03/08		
LAWST	D	2004/08/07	2005/06/21	1100	3878909	US110122AS73	30831	2005/03/08		
LAWST	U	2004/08/09	2007/10/27	1102	189101	US06423AAG85	30430	2007/10/26	CLSACT	
LAWST	U	2004/08/25	2011/11/04	1127	165193	XS0139186356	30198	2011/11/03	CLSACT	
LAWST	U	2004/08/25	2011/11/04	1127	313803	USU03017BA47	30198	2011/11/03	CLSACT	
LAWST	U	2004/08/25	2013/01/04	1132	164353	XS0180032103	31453	2013/01/03	CLSACT	
LAWST	U	2004/08/25	2013/01/04	1132	183433	XS0157870311	31453	2013/01/03	CLSACT	
LAWST	U	2004/08/25	2013/01/04	1132	283078	XS0226062981	31453	2013/01/03	CLSACT	
LAWST	U	2004/08/25	2013/01/04	1132	340431	US172967DH14	31453	2013/01/03	CLSACT	
LAWST	U	2004/08/25	2013/01/04	1132	377277	XS0257598341	31453	2013/01/03	CLSACT	
LAWST	U	2004/08/25	2013/01/04	1132	429988	US172967DU25	31453	2013/01/03	CLSACT	
LAWST	U	2004/08/25	2013/01/04	1132	438377	CH0027670352	31453	2013/01/03	CLSACT	
LAWST	U	2004/08/25	2013/01/04	1132	555687	XS0277974076	31453	2013/01/03	CLSACT	
LAWST	U	2004/08/25	2013/01/04	1132	596037	XS0303074883	31453	2013/01/03	CLSACT	
LAWST	U	2004/08/25	2013/01/04	1132	639634	US172967DZ12	31453	2013/01/03	CLSACT	
LAWST	U	2004/08/25	2013/01/04	1132	822986	US172967EQ04	31453	2013/01/03	CLSACT	
LAWST	U	2004/08/25	2013/01/04	1132	961114	US172967EJ60	31453	2013/01/03	CLSACT	
LAWST	U	2004/08/25	2013/01/04	1132	1356203	US17313UAE91	31453	2013/01/03	CLSACT	
LAWST	U	2004/08/25	2013/01/04	1132	1463861	XS0433943718	31453	2013/01/03	CLSACT	
LAWST	U	2004/08/25	2013/01/04	1132	1537166	DE000A1AH128	31453	2013/01/03	CLSACT	
LAWST	U	2004/08/25	2013/01/04	1132	1541110	US172967EY38	31453	2013/01/03	CLSACT	
LAWST	U	2004/08/25	2013/01/04	1132	1719496	US172967FA43	31453	2013/01/03	CLSACT	
LAWST	U	2004/08/25	2013/01/04	1132	2227975	XS0563159184	31453	2013/01/03	CLSACT	
LAWST	U	2004/08/25	2013/01/04	1132	3853587	XS0792969965	31453	2013/01/03	CLSACT	
LAWST	U	2004/08/31	2012/07/11	1141	5455420	CA13596Z2B07	41817	2012/07/09	CLSACT	
LAWST	U	2004/08/31	2012/07/11	1141	1663808	CA13591Z4H00	41817	2012/07/09	CLSACT	
LAWST	U	2004/08/31	2012/07/11	1141	1987693	USC2428PAG66	41817	2012/07/09	CLSACT	
LAWST	U	2004/08/31	2012/07/11	1141	3967056	US136069FA45	41817	2012/07/09	CLSACT	
LAWST	U	2004/08/31	2012/07/11	1141	4315089	XS1065847375	41817	2012/07/09	CLSACT	
LAWST	U	2004/08/31	2012/07/11	1141	4661398	XS1332474912	41817	2012/07/09	CLSACT	
LAWST	U	2004/08/31	2012/07/11	1141	4972598	XS1526435356	41817	2012/07/09	CLSACT	
LAWST	U	2004/08/31	2012/07/11	1141	5455656	US13605WKH33	41817	2012/07/09	CLSACT	
LAWST	U	2004/08/31	2012/07/11	1141	5455901	XS1780614290	41817	2012/07/09	CLSACT	
LAWST	U	2004/10/01	2012/10/20	1181	253326	US31359MTB99	71538	2012/10/19	CLSACT	
LAWST	U	2004/10/01	2012/10/20	1181	253441	US31359MEV19	71538	2012/10/19	CLSACT	
LAWST	U	2004/10/01	2012/10/20	1181	307371	US31359MZL08	71538	2012/10/19	CLSACT	
LAWST	U	2004/10/01	2012/10/20	1181	594041	US31398ABX90	71538	2012/10/19	CLSACT	
LAWST	U	2004/10/01	2012/10/20	1181	844879	US31359MA529	71538	2012/10/19	CLSACT	
LAWST	U	2004/10/01	2012/10/20	1181	5455639	US313589YN76	71538	2012/10/19	CLSACT	
LAWST	U	2004/10/01	2012/10/20	1181	5455648	US313589YQ08	71538	2012/10/19	CLSACT	
LAWST	U	2004/10/01	2012/10/20	1181	5455654	US313589YR80	71538	2012/10/19	CLSACT	
LAWST	D	2004/10/05	2005/03/28	1183	184067	XS0060045472	36095	2004/12/12		
LAWST	D	2004/10/05	2005/03/28	1183	683852	XS0323955541	36095	2004/12/12		
LAWST	U	2004/10/12	2011/07/29	1186	169147	XS0141505957	46770	2011/07/28	CLSACT	
LAWST	U	2004/10/21	2012/10/11	1196	747625	US02687QBE70	29813	2012/10/10	CLSACT	
LAWST	D	2004/10/25	2013/06/26	1201	734269	US59156RAD08	36149	2012/01/20	CLSACT	
LAWST	D	2004/10/25	2013/06/26	1201	1461396	US59156RAU23	36149	2012/01/20	CLSACT	
LAWST	U	2001/10/25	2005/10/06	112	570326	DE0002486552	38624	2005/10/05		
LAWST	U	2004/11/26	2012/10/11	1238	258246	US717081AR42	37622	2012/10/10	CLSACT	
LAWST	U	2004/11/26	2012/10/11	1238	596590	XS0301010145	37622	2012/10/10	CLSACT	
LAWST	U	2004/11/26	2012/10/11	1238	736690	XS0336018832	37622	2012/10/10	CLSACT	
LAWST	U	2004/11/26	2012/10/11	1238	1364011	US717081CZ40	37622	2012/10/10	CLSACT	
LAWST	U	2004/11/26	2012/10/11	1238	1461406	XS0432070752	37622	2012/10/10	CLSACT	
LAWST	U	2004/11/26	2012/10/11	1238	4047710	US717081DG59	37622	2012/10/10	CLSACT	
LAWST	U	2005/01/14	2009/06/23	1289	4034023	USU4608CAC20	34796	2009/06/22		
LAWST	U	2005/01/14	2009/06/23	1289	4082561	US462044AE87	34796	2009/06/22		
LAWST	I	2001/11/05	2001/11/05	126	971143	US909214BL16	40151	2001/11/01		
LAWST	U	2005/01/31	2005/03/24	1322	681089	US046353AC28	4259	2005/03/24		
LAWST	U	2005/01/31	2005/03/24	1322	681092	US046353AB45	4259	2005/03/24		
LAWST	U	2005/01/31	2005/03/24	1322	719714	XS0330496927	4259	2005/03/24		
LAWST	U	2005/02/02	2008/02/11	1328	748079	US205887BA91	31773	2008/02/08		
LAWST	U	2005/02/02	2008/02/11	1328	3965892	US205887BQ44	31773	2008/02/08		
LAWST	U	2005/02/12	2009/05/14	1339	147739	US617446HS12	36408	2009/05/13	CLSACT	
LAWST	U	2005/02/12	2009/05/14	1339	157854	XS0181482349	36408	2009/05/13	CLSACT	
LAWST	U	2005/02/12	2009/05/14	1339	275169	XS0225152411	36408	2009/05/13	CLSACT	
LAWST	U	2005/02/12	2009/05/14	1339	287270	XS0225151520	36408	2009/05/13	CLSACT	
LAWST	U	2005/02/12	2009/05/14	1339	327304	XS0236338504	36408	2009/05/13	CLSACT	
LAWST	U	2005/02/12	2009/05/14	1339	353786	XS0245835540	36408	2009/05/13	CLSACT	
LAWST	U	2005/02/12	2009/05/14	1339	441604	XS0235620142	36408	2009/05/13	CLSACT	
LAWST	U	2005/02/12	2009/05/14	1339	441610	US61746SBS77	36408	2009/05/13	CLSACT	
LAWST	U	2005/02/12	2009/05/14	1339	443831	US61744AAN00	36408	2009/05/13	CLSACT	
LAWST	U	2005/02/12	2009/05/14	1339	458537	US61746BCW46	36408	2009/05/13	CLSACT	
LAWST	U	2005/02/12	2009/05/14	1339	586162	XS0298900217	36408	2009/05/13	CLSACT	
LAWST	U	2005/02/12	2009/05/14	1339	971323	US61747YCE32	36408	2009/05/13	CLSACT	
LAWST	U	2005/02/12	2009/05/14	1339	1368434	XS0421468033	36408	2009/05/13	CLSACT	
LAWST	U	2005/02/12	2009/05/14	1339	1664908	US61747YCK91	36408	2009/05/13	CLSACT	
LAWST	U	2005/02/12	2009/05/14	1339	1758730	US61747YCL74	36408	2009/05/13	CLSACT	
LAWST	U	2005/02/12	2009/05/14	1339	2878143	US61747WAK53	36408	2009/05/13	CLSACT	
LAWST	U	2005/02/12	2009/05/14	1339	3856968	XS0795874279	36408	2009/05/13	CLSACT	
LAWST	U	2005/02/12	2009/05/14	1339	3915501	XS0844457977	36408	2009/05/13	CLSACT	
LAWST	U	2005/02/12	2009/05/14	1339	5455917	US61768P1324	36408	2009/05/13	CLSACT	
LAWST	U	2005/02/12	2009/05/14	1339	5455918	US61768P1241	36408	2009/05/13	CLSACT	
LAWST	U	2005/02/12	2009/05/14	1339	5455926	US61768P1654	36408	2009/05/13	CLSACT	
LAWST	U	2005/02/12	2009/05/14	1339	5455806	US61768P2314	36408	2009/05/13	CLSACT	
LAWST	U	2005/02/12	2009/05/14	1339	5455818	US61768P1811	36408	2009/05/13	CLSACT	
LAWST	U	2005/02/12	2009/05/14	1339	5455882	US61768P1993	36408	2009/05/13	CLSACT	
LAWST	U	2005/02/12	2009/05/14	1339	5455886	US61768P1407	36408	2009/05/13	CLSACT	
LAWST	U	2005/02/12	2009/05/14	1339	5455896	US61768P1167	36408	2009/05/13	CLSACT	
LAWST	U	2005/02/12	2009/05/14	1339	5455907	US61768P1738	36408	2009/05/13	CLSACT	
LAWST	U	2005/02/12	2009/05/14	1339	5455913	US61768P1571	36408	2009/05/13	CLSACT	
LAWST	U	2005/02/12	2012/12/12	1343	963935	US585055AM81	36054	2012/12/11	CLSACT	
LAWST	U	2005/02/12	2012/12/12	1343	1437702	US585055AP13	36054	2012/12/11	CLSACT	
LAWST	U	2005/02/12	2012/12/12	1343	4397221	USU3155LAF41	36054	2012/12/11	CLSACT	
LAWST	U	2005/02/12	2012/12/12	1343	4397257	US585055BK17	36054	2012/12/11	CLSACT	
LAWST	U	2005/02/12	2012/12/12	1343	4397262	USU3155LAC10	36054	2012/12/11	CLSACT	
LAWST	U	2005/02/17	2012/12/24	1354	962594	US949746NY36	40751	2012/12/21	CLSACT	
LAWST	U	2005/02/17	2012/12/24	1354	2436032	US949746QU86	40751	2012/12/21	CLSACT	
LAWST	U	2005/02/17	2012/12/24	1354	3918385	US949746PM79	40751	2012/12/21	CLSACT	
LAWST	U	2005/02/17	2012/12/24	1354	5030554	XS1558022866	40751	2012/12/21	CLSACT	
LAWST	D	2005/03/04	2013/02/01	1379	313113	XS0132292524	34313	2012/12/28	CLSACT	
LAWST	D	2005/03/04	2013/02/01	1379	1264717	US428236AT06	34313	2012/12/28	CLSACT	
LAWST	D	2005/03/04	2013/02/01	1379	3089563	US428236BN27	34313	2012/12/28	CLSACT	
LAWST	I	2001/11/12	2001/11/12	130	570326	DE0002486552	38624	2001/11/07		
LAWST	U	2005/03/22	2013/08/30	1409	345911	US478160AM65	35220	2012/01/06	CLSACT	
LAWST	U	2005/03/22	2013/08/30	1409	983652	US478160AQ79	35220	2012/01/06	CLSACT	
LAWST	U	2005/03/25	2008/10/30	1416	170907	US370442BB09	33761	2008/10/29	CLSACT	
LAWST	U	2005/03/28	2010/01/20	1421	2108096	US24702RAL50	32221	2010/01/19	CLSACT	
LAWST	U	2005/03/28	2010/01/20	1421	2561533	US24702RAN17	32221	2010/01/19	CLSACT	
LAWST	U	2005/03/29	2011/07/07	1427	167458	DE0001343101	20481	2011/07/06	CLSACT	
LAWST	U	2005/03/29	2011/07/07	1427	169273	XS0141255587	20481	2011/07/06	CLSACT	
LAWST	U	2005/03/29	2011/07/07	1427	173027	XS0149019902	20481	2011/07/06	CLSACT	
LAWST	U	2005/03/29	2011/07/07	1427	175668	XS0198456054	20481	2011/07/06	CLSACT	
LAWST	U	2005/03/29	2011/07/07	1427	182897	XS0105235088	20481	2011/07/06	CLSACT	
LAWST	U	2005/03/29	2011/07/07	1427	182905	XS0186568845	20481	2011/07/06	CLSACT	
LAWST	U	2005/03/29	2011/07/07	1427	266824	DE0003933404	20481	2011/07/06	CLSACT	
LAWST	U	2005/03/29	2011/07/07	1427	266887	DE0003932976	20481	2011/07/06	CLSACT	
LAWST	U	2005/03/29	2011/07/07	1427	266957	DE0003933685	20481	2011/07/06	CLSACT	
LAWST	U	2005/03/29	2011/07/07	1427	266992	DE0003933578	20481	2011/07/06	CLSACT	
LAWST	U	2005/03/29	2011/07/07	1427	266996	DE0003933388	20481	2011/07/06	CLSACT	
LAWST	U	2005/03/29	2011/07/07	1427	266997	XS0184776614	20481	2011/07/06	CLSACT	
LAWST	U	2005/03/29	2011/07/07	1427	267000	DE0003933321	20481	2011/07/06	CLSACT	
LAWST	U	2005/03/29	2011/07/07	1427	267001	DE0003933230	20481	2011/07/06	CLSACT	
LAWST	U	2005/03/29	2011/07/07	1427	267007	XS0155180903	20481	2011/07/06	CLSACT	
LAWST	U	2005/03/29	2011/07/07	1427	267010	DE0003933289	20481	2011/07/06	CLSACT	
LAWST	U	2005/03/29	2011/07/07	1427	267013	DE0003933248	20481	2011/07/06	CLSACT	
LAWST	U	2005/03/29	2011/07/07	1427	267018	DE0003933412	20481	2011/07/06	CLSACT	
LAWST	U	2005/03/29	2011/07/07	1427	267021	DE0003933362	20481	2011/07/06	CLSACT	
LAWST	U	2005/03/29	2011/07/07	1427	267028	DE0003933420	20481	2011/07/06	CLSACT	
LAWST	U	2005/03/29	2011/07/07	1427	267030	DE0003933198	20481	2011/07/06	CLSACT	
LAWST	U	2005/03/29	2011/07/07	1427	267036	DE0003933180	20481	2011/07/06	CLSACT	
LAWST	U	2005/03/29	2011/07/07	1427	267047	DE0003933115	20481	2011/07/06	CLSACT	
LAWST	U	2005/03/29	2011/07/07	1427	267052	DE0003933123	20481	2011/07/06	CLSACT	
LAWST	U	2005/03/29	2011/07/07	1427	268903	DE0003932901	20481	2011/07/06	CLSACT	
LAWST	U	2005/03/29	2011/07/07	1427	351571	DE0007476533	20481	2011/07/06	CLSACT	
LAWST	U	2005/03/29	2011/07/07	1427	351575	DE000DB3ABV1	20481	2011/07/06	CLSACT	
LAWST	U	2005/03/29	2011/07/07	1427	351926	XS0209726024	20481	2011/07/06	CLSACT	
LAWST	U	2005/03/29	2011/07/07	1427	375163	DE0003933511	20481	2011/07/06	CLSACT	
LAWST	U	2005/03/29	2011/07/07	1427	396789	DE0003930863	20481	2011/07/06	CLSACT	
LAWST	U	2005/03/29	2011/07/07	1427	398097	DE0003933560	20481	2011/07/06	CLSACT	
LAWST	U	2005/03/29	2011/07/07	1427	411926	DE0003933669	20481	2011/07/06	CLSACT	
LAWST	U	2005/03/29	2011/07/07	1427	416782	DE0003933545	20481	2011/07/06	CLSACT	
LAWST	U	2005/03/29	2011/07/07	1427	485505	XS0247556490	20481	2011/07/06	CLSACT	
LAWST	U	2005/03/29	2011/07/07	1427	493827	XS0282423283	20481	2011/07/06	CLSACT	
LAWST	U	2005/03/29	2011/07/07	1427	620043	DE000A0BNUN0	20481	2011/07/06	CLSACT	
LAWST	U	2005/03/29	2011/07/07	1427	631073	DE000DB29172	20481	2011/07/06	CLSACT	
LAWST	U	2005/03/29	2011/07/07	1427	694856	US2515A0HQ94	20481	2011/07/06	CLSACT	
LAWST	U	2005/03/29	2011/07/07	1427	776515	CH0037938575	20481	2011/07/06	CLSACT	
LAWST	U	2005/03/29	2011/07/07	1427	789106	DE000DB5S6X0	20481	2011/07/06	CLSACT	
LAWST	U	2005/03/29	2011/07/07	1427	1160699	DE000DB0UWV1	20481	2011/07/06	CLSACT	
LAWST	U	2005/03/29	2011/07/07	1427	1503565	CH0102870927	20481	2011/07/06	CLSACT	
LAWST	U	2005/03/29	2011/07/07	1427	1836072	DE000DB5DDK9	20481	2011/07/06	CLSACT	
LAWST	U	2005/03/29	2011/07/07	1427	3105754	DE000DE28ZP7	20481	2011/07/06	CLSACT	
LAWST	U	2005/03/29	2011/07/07	1427	4082184	DE0007223737	20481	2011/07/06	CLSACT	
LAWST	U	2005/03/29	2011/07/07	1427	4082209	DE000DB6GSC5	20481	2011/07/06	CLSACT	
LAWST	U	2005/03/29	2011/07/07	1427	4082912	DE0008991647	20481	2011/07/06	CLSACT	
LAWST	U	2005/03/29	2011/07/07	1427	4739068	DE000A2AA1F8	20481	2011/07/06	CLSACT	
LAWST	U	2005/03/29	2011/07/07	1427	4750562	DE000DL19SS0	20481	2011/07/06	CLSACT	
LAWST	D	2005/04/02	2012/09/26	1435	837242	US911312AH93	40185	2008/03/20	CLSACT	
LAWST	U	2005/04/13	2007/05/03	1445	166136	XS0166485663	47318	2007/05/02		
LAWST	U	2005/04/13	2007/05/03	1445	176466	XS0177187894	47318	2007/05/02		
LAWST	U	2005/04/16	2011/02/25	1452	1637766	US63934EAL20	36644	2011/02/24	CLSACT	
LAWST	U	2005/04/26	2008/04/17	1459	145776	XS0096789481	31573	2008/04/16		
LAWST	U	2005/05/09	2008/02/20	1470	961789	US00206RAF91	38606	2008/02/19		
LAWST	U	2005/05/09	2008/02/20	1470	977812	US00206RAJ14	38606	2008/02/19		
LAWST	U	2005/05/09	2008/02/20	1470	5455829	XS1778825007	38606	2008/02/19		
LAWST	U	2005/05/09	2008/02/20	1470	5455883	XS1778825262	38606	2008/02/19		
LAWST	U	2005/05/09	2008/02/20	1470	5455891	XS1778825429	38606	2008/02/19		
LAWST	U	2005/05/09	2008/02/20	1470	5455894	XS1778827631	38606	2008/02/19		
LAWST	U	2005/05/19	2012/12/31	1482	253475	US931142BT92	40645	2012/12/28	CLSACT	
LAWST	U	2005/05/19	2012/12/31	1482	1850925	US931142CR28	40645	2012/12/28	CLSACT	
LAWST	U	2005/05/19	2012/12/31	1482	1988787	US931142CT83	40645	2012/12/28	CLSACT	
LAWST	U	2005/07/13	2012/11/24	1531	183382	XS0109776657	34934	2012/11/23	CLSACT	
LAWST	U	2005/07/13	2012/11/24	1531	244149	CH0020024680	34934	2012/11/23	CLSACT	
LAWST	U	2005/07/13	2012/11/24	1531	255887	US459200BA86	34934	2012/11/23	CLSACT	
LAWST	U	2005/07/13	2012/11/24	1531	922582	CH0042308780	34934	2012/11/23	CLSACT	
LAWST	U	2005/07/13	2012/11/24	1531	922595	CH0042308749	34934	2012/11/23	CLSACT	
LAWST	U	2005/08/04	2012/10/05	1541	321752	CH0020866973	19400	2012/10/04	CLSACT	
LAWST	U	2005/08/04	2012/10/05	1541	327941	DE000UB0ECH5	19400	2012/10/04	CLSACT	
LAWST	U	2005/08/04	2012/10/05	1541	327946	DE000UB0ECF9	19400	2012/10/04	CLSACT	
LAWST	U	2005/08/04	2012/10/05	1541	346616	CH0020521743	19400	2012/10/04	CLSACT	
LAWST	U	2005/08/04	2012/10/05	1541	355334	CH0020564982	19400	2012/10/04	CLSACT	
LAWST	U	2005/08/04	2012/10/05	1541	414332	CH0027046140	19400	2012/10/04	CLSACT	
LAWST	U	2005/08/04	2012/10/05	1541	414340	CH0027045761	19400	2012/10/04	CLSACT	
LAWST	U	2005/08/04	2012/10/05	1541	414849	CH0027138897	19400	2012/10/04	CLSACT	
LAWST	U	2005/08/04	2012/10/05	1541	954148	CH0042309937	19400	2012/10/04	CLSACT	
LAWST	U	2005/08/04	2012/10/05	1541	1701641	CH0101177233	19400	2012/10/04	CLSACT	
LAWST	U	2005/08/04	2012/10/05	1541	1758378	CH0101177449	19400	2012/10/04	CLSACT	
LAWST	U	2005/08/04	2012/10/05	1541	4119397	CH0103748197	19400	2012/10/04	CLSACT	
LAWST	U	2005/10/04	2012/08/20	1743	984084	US68389XAC92	37237	2012/08/17	CLSACT	
LAWST	U	2006/03/21	2012/11/20	1821	329123	CH0023983940	30496	2012/11/19	CLSACT	
LAWST	U	2006/03/21	2012/11/20	1821	620069	CH0027819744	30496	2012/11/19	CLSACT	
LAWST	U	2006/04/14	2012/10/15	1838	2674014	US303901AS14	42294	2012/10/14	CLSACT	
LAWST	U	2006/05/11	2010/05/07	1852	4562074	US91324PCK66	40212	2010/05/06	CLSACT	
LAWST	U	2006/08/05	2012/09/25	1875	4696736	US15135BAE11	68223	2012/09/24	CLSACT	
LAWST	U	2006/08/31	2011/05/31	1885	2512115	US17275RAK86	31448	2011/05/30	CLSACT	
LAWST	U	2006/08/31	2011/05/31	1885	4531540	US17275RAU68	31448	2011/05/30	CLSACT	
LAWST	U	2006/08/31	2011/05/31	1885	4899563	US17275RBK77	31448	2011/05/30	CLSACT	
LAWST	U	2007/04/25	2012/07/07	1930	973280	US031162AV28	29920	2012/07/06	CLSACT	2007/04/17
LAWST	U	2007/04/25	2012/07/07	1930	3264522	US031162BL37	29920	2012/07/06	CLSACT	2007/04/17
LAWST	U	2007/04/25	2012/07/07	1930	3801541	US031162BQ24	29920	2012/07/06	CLSACT	2007/04/17
LAWST	U	2007/05/14	2009/10/19	1964	1123943	US552953AK78	36187	2009/10/16	CLSACT	
LAWST	U	2007/05/14	2010/07/13	1975	751232	US20030NAR26	58572	2010/07/12	CLSACT	
LAWST	U	2007/05/14	2010/07/13	1975	974114	US20030NAU54	58572	2010/07/12	CLSACT	
LAWST	U	2007/05/22	2012/06/19	1985	977373	US94973VAM90	66032	2012/06/15	CLSACT	
LAWST	U	2007/05/22	2012/06/19	1985	3901068	US94973VAZ04	66032	2012/06/15	CLSACT	
LAWST	U	2007/05/22	2012/06/19	1985	3905429	US94973VBC00	66032	2012/06/15	CLSACT	
LAWST	D	2007/06/02	2009/03/13	1995	4515976	DE000BC5LVJ7	108321	2007/06/01		
LAWST	D	2007/06/11	2013/06/14	2016	1442595	CH0029463814	19310	2012/01/20	CLSACT	
LAWST	U	2007/07/14	2008/05/07	2077	1365196	US931422AE91	40646	2008/04/21	CLSACT	
LAWST	U	2007/07/14	2008/08/28	2079	734512	US87612EAM84	39521	2008/08/27	CLSACT	
LAWST	D	2007/08/04	2013/08/06	2128	5455707	XS1791019638	31752	2011/09/28	CLSACT	
LAWST	U	2007/08/28	2009/05/27	2172	254737	US50075NAL82	63549	2009/05/26		
LAWST	U	2007/08/28	2009/05/27	2172	254745	US50075NAB01	63549	2009/05/26		
LAWST	U	2007/08/28	2009/05/27	2172	254754	US50075NAH70	63549	2009/05/26		
LAWST	U	2007/08/28	2009/05/27	2172	806811	XS0353180465	63549	2009/05/26		
LAWST	U	2007/09/22	2008/09/11	2208	716850	US002824AT72	29304	2008/09/10	CLSACT	
LAWST	U	2007/09/22	2008/09/11	2208	1930430	US002824AX84	29304	2008/09/10	CLSACT	
LAWST	U	2007/09/24	2010/04/17	2212	3959771	US855030AL63	39195	2010/04/16	CLSACT	
LAWST	U	2007/09/24	2010/03/18	2218	1434958	US124857AB90	31162	2010/03/17	CLSACT	
LAWST	U	2007/10/05	2011/06/17	2235	837077	US92343VAM63	40449	2011/06/16	CLSACT	
LAWST	U	2007/10/05	2012/06/12	2236	2356819	USU72068AA41	37701	2012/06/09	CLSACT	
LAWST	U	2007/10/05	2012/06/12	2236	3551602	US72147KAB44	37701	2012/06/09	CLSACT	
LAWST	U	2007/10/16	2012/10/20	2267	1511078	XS0406095041	5347	2012/10/19	CLSACT	
LAWST	U	2007/10/16	2012/10/20	2267	1665034	XS0469192388	5347	2012/10/19	CLSACT	
LAWST	U	2007/10/16	2012/10/20	2267	1987883	US5394398029	5347	2012/10/19	CLSACT	
LAWST	U	2007/10/16	2012/10/20	2267	4661409	US539439AH25	5347	2012/10/19	CLSACT	
LAWST	U	2007/11/08	2011/07/28	2326	971103	US743263AL93	37977	2011/07/27	CLSACT	
LAWST	U	2007/11/23	2012/03/14	2351	429072	US3134A4QD93	72104	2012/03/13	CLSACT	
LAWST	U	2007/11/23	2012/03/14	2351	733882	US3134A4TZ78	72104	2012/03/13	CLSACT	
LAWST	U	2007/11/23	2012/03/14	2351	5455779	US3134GSGX73	72104	2012/03/13	CLSACT	
LAWST	U	2007/11/23	2012/03/14	2351	5455780	US3134GSHB45	72104	2012/03/13	CLSACT	
LAWST	U	2007/11/23	2012/03/14	2351	5455785	US3134GSGY56	72104	2012/03/13	CLSACT	
LAWST	U	2007/11/23	2012/03/14	2351	5455789	US3134GSHD01	72104	2012/03/13	CLSACT	
LAWST	U	2007/11/23	2012/03/14	2351	5455795	US3134GSHE83	72104	2012/03/13	CLSACT	
LAWST	U	2007/11/23	2012/03/14	2351	5455772	US3134GSGW90	72104	2012/03/13	CLSACT	
LAWST	U	2008/02/08	2012/12/20	2450	183192	XS0161939508	33931	2012/12/13	CLSACT	
LAWST	U	2008/02/08	2012/12/20	2450	183197	XS0167154680	33931	2012/12/13	CLSACT	
LAWST	U	2008/02/08	2012/12/20	2450	243702	XS0184927761	33931	2012/12/13	CLSACT	
LAWST	U	2008/02/08	2012/12/20	2450	385470	US38141GDQ47	33931	2012/12/13	CLSACT	
LAWST	U	2008/02/08	2012/12/20	2450	443003	US38141GEA85	33931	2012/12/13	CLSACT	
LAWST	U	2008/02/08	2012/12/20	2450	443941	US38141GCM42	33931	2012/12/13	CLSACT	
LAWST	U	2008/02/08	2012/12/20	2450	480867	XS0275122165	33931	2012/12/13	CLSACT	
LAWST	U	2008/02/08	2012/12/20	2450	591272	XS0300975306	33931	2012/12/13	CLSACT	
LAWST	U	2008/02/08	2012/12/20	2450	628365	US38141GEV23	33931	2012/12/13	CLSACT	
LAWST	U	2008/02/08	2012/12/20	2450	838037	US38141GDZ46	33931	2012/12/13	CLSACT	
LAWST	U	2008/02/08	2012/12/20	2450	2027713	US38141EA745	33931	2012/12/13	CLSACT	
LAWST	U	2008/02/08	2012/12/20	2450	3958265	XS0872808299	33931	2012/12/13	CLSACT	
LAWST	U	2008/02/08	2012/12/20	2450	3958269	XS0872808372	33931	2012/12/13	CLSACT	
LAWST	U	2008/02/08	2012/12/20	2450	3958278	XS0872808455	33931	2012/12/13	CLSACT	
LAWST	U	2008/02/08	2012/12/20	2450	4042590	XS0925752841	33931	2012/12/13	CLSACT	
LAWST	U	2008/02/08	2012/12/20	2450	4382250	XS1135394028	33931	2012/12/13	CLSACT	
LAWST	U	2008/02/08	2012/12/20	2450	4536429	XS1246649690	33931	2012/12/13	CLSACT	
LAWST	U	2008/02/08	2012/12/20	2450	4997346	XS1417279665	33931	2012/12/13	CLSACT	
LAWST	U	2008/04/30	2012/09/26	2552	168167	US524908CG36	35557	2012/09/25	CLSACT	
LAWST	D	2008/05/13	2008/06/13	2565	184390	US7800876N73	43403	2008/05/19	CLSACT	
LAWST	D	2008/05/13	2008/06/13	2565	538946	US780085LP94	43403	2008/05/19	CLSACT	
LAWST	D	2008/05/13	2008/06/13	2565	559331	XS0291810637	43403	2008/05/19	CLSACT	
LAWST	D	2008/05/13	2008/06/13	2565	585339	CH0030548793	43403	2008/05/19	CLSACT	
LAWST	D	2008/05/13	2008/06/13	2565	771885	CH0036690771	43403	2008/05/19	CLSACT	
LAWST	D	2008/05/13	2008/06/13	2565	1068179	XS0378754906	43403	2008/05/19	CLSACT	
LAWST	D	2008/05/13	2008/06/13	2565	1881248	USC80087BC95	43403	2008/05/19	CLSACT	
LAWST	D	2008/05/13	2008/06/13	2565	2130637	US78008KNA78	43403	2008/05/19	CLSACT	
LAWST	D	2008/05/13	2008/06/13	2565	3894193	XS0806433909	43403	2008/05/19	CLSACT	
LAWST	D	2008/05/13	2008/06/13	2565	4016276	XS0887885670	43403	2008/05/19	CLSACT	
LAWST	D	2008/05/13	2008/06/13	2565	4027060	XS0920759403	43403	2008/05/19	CLSACT	
LAWST	D	2008/05/13	2008/06/13	2565	4206557	XS1038613060	43403	2008/05/19	CLSACT	
LAWST	D	2008/05/13	2008/06/13	2565	4277688	XS1068531422	43403	2008/05/19	CLSACT	
LAWST	D	2008/05/13	2008/06/13	2565	4332270	XS1099703875	43403	2008/05/19	CLSACT	
LAWST	D	2008/05/13	2008/06/13	2565	4357879	XS1103889264	43403	2008/05/19	CLSACT	
LAWST	D	2008/05/13	2008/06/13	2565	4422720	XS1167760229	43403	2008/05/19	CLSACT	
LAWST	D	2008/05/13	2008/06/13	2565	4452514	XS1196069261	43403	2008/05/19	CLSACT	
LAWST	D	2008/05/13	2008/06/13	2565	4467266	XS1181898252	43403	2008/05/19	CLSACT	
LAWST	D	2008/05/13	2008/06/13	2565	4488102	XS1209419925	43403	2008/05/19	CLSACT	
LAWST	D	2008/05/13	2008/06/13	2565	4499999	XS1209448866	43403	2008/05/19	CLSACT	
LAWST	D	2008/05/13	2008/06/13	2565	4598546	XS1287843905	43403	2008/05/19	CLSACT	
LAWST	D	2008/05/13	2008/06/13	2565	4730948	XS1384856925	43403	2008/05/19	CLSACT	
LAWST	D	2008/05/13	2008/06/13	2565	5019239	XS1542526493	43403	2008/05/19	CLSACT	
LAWST	D	2008/05/13	2008/06/13	2565	5455880	US78014RAA86	43403	2008/05/19	CLSACT	
LAWST	D	2008/05/13	2008/06/13	2565	5455884	US78013XGZ50	43403	2008/05/19	CLSACT	
LAWST	D	2008/05/13	2008/06/13	2565	5455890	US78013XHD30	43403	2008/05/19	CLSACT	
LAWST	D	2008/05/13	2008/06/13	2565	5455892	US78013XHB73	43403	2008/05/19	CLSACT	
LAWST	D	2008/06/17	2013/06/05	2596	984261	US165167CC95	31362	2012/06/08	CLSACT	
LAWST	D	2008/06/17	2013/06/05	2596	2065235	US165167CE51	31362	2012/06/08	CLSACT	
LAWST	U	2008/08/08	2008/08/18	2625	3276709	US48248A4058	109289	2008/08/15	CLSACT	
LAWST	U	2008/08/08	2008/08/18	2625	3636377	US48248A5048	109289	2008/08/15	CLSACT	
LAWST	U	2008/12/06	2008/12/13	2683	5455750	US3132X0N562	33150	2008/12/12	CLSACT	
LAWST	U	2009/03/18	2012/09/08	2739	240920	US780097AP69	5815	2012/09/07	CLSACT	
LAWST	U	2009/03/18	2012/09/08	2739	2078469	AU3CB0158095	5815	2012/09/07	CLSACT	
LAWST	U	2009/03/18	2012/09/08	2739	2357854	US78010XAJ00	5815	2012/09/07	CLSACT	
LAWST	U	2009/03/18	2012/09/08	2739	2810878	NL0009811447	5815	2012/09/07	CLSACT	
LAWST	U	2009/03/18	2012/09/08	2739	3362740	XS0721067766	5815	2012/09/07	CLSACT	
LAWST	U	2009/03/18	2012/09/08	2739	3900842	US780099CC94	5815	2012/09/07	CLSACT	
LAWST	D	2009/03/19	2013/04/17	2740	1591466	US74432QBJ31	58434	2012/10/22	CLSACT	
LAWST	D	2009/03/19	2013/04/17	2740	2680678	US74432QBR56	58434	2012/10/22	CLSACT	
LAWST	U	2009/07/31	2012/08/07	2846	2234657	XS0564487568	34949	2012/08/06	CLSACT	
LAWST	U	2009/09/12	2009/11/11	2871	963262	US035290AJ46	29975	2009/11/10	CLSACT	
LAWST	U	2009/10/29	2009/12/24	2895	983622	US72447XAC11	37732	2009/12/23	CLSACT	
LAWST	U	2010/05/14	2012/03/24	2973	1048197	US893830AW97	39891	2012/03/23	CLSACT	
LAWST	U	2010/05/14	2012/03/24	2973	2117137	US893830AX70	39891	2012/03/23	CLSACT	
LAWST	U	2010/05/14	2012/03/24	2973	3899322	US893830BD08	39891	2012/03/23	CLSACT	
LAWST	U	2011/02/02	2012/10/05	3109	476544	XS0192950367	83579	2012/10/04	CLSACT	
LAWST	U	2011/02/11	2011/05/23	3117	1517709	US74153QAG73	37910	2011/05/20	CLSACT	
LAWST	U	2011/06/09	2012/12/29	3190	693654	USC83912AA02	67291	2012/12/07	CLSACT	
LAWST	U	2011/06/09	2012/12/29	3190	2172055	USC83912AF98	67291	2012/12/07	CLSACT	
LAWST	U	2011/12/28	2012/02/25	3300	288292	XS0142249555	47753	2012/02/24	CLSACT	
LAWST	U	2011/12/28	2012/02/25	3300	3863212	FR0011278571	47753	2012/02/24	CLSACT	
LAWST	D	2012/02/02	2013/06/28	3313	4016361	USU4230QAA14	34274	2012/03/26	CLSACT	
LAWST	U	2002/04/12	2002/05/28	292	162700	FR0000487647	45895	2001/11/08		
LAWST	U	2002/04/12	2002/05/28	292	162702	FR0010070805	45895	2001/11/08		
LAWST	U	2002/04/12	2002/05/28	292	182277	FR0000495855	45895	2001/11/08		
LAWST	D	2012/02/17	2013/06/20	3322	3112828	USC4949AAA81	42757	2012/04/12	CLSACT	
LAWST	D	2012/02/17	2013/06/20	3322	3856709	US496902AH00	42757	2012/04/12	CLSACT	
LAWST	D	2012/12/06	2013/02/02	3476	1201909	US80007PAF62	96523	2012/12/12	CLSACT	
LAWST	U	2002/05/16	2009/06/24	336	261704	US30161NAD30	33041	2009/06/23		
LAWST	U	2002/07/25	2012/11/09	433	3927411	US14040HBA23	31030	2008/06/13	CLSACT	
LAWST	D	2002/10/14	2009/07/03	521	165193	XS0139186356	30198	2002/10/10		
LAWST	D	2002/10/14	2009/07/03	521	313803	USU03017BA47	30198	2002/10/10		
LAWST	U	2002/10/14	2005/03/30	522	416850	DE0004769716	37303	2005/03/29		
LAWST	U	2003/02/04	2004/08/26	644	155225	XS0166560622	50877	2004/08/23		
LAWST	U	2003/02/04	2004/08/26	644	1408082	XS0425811865	50877	2004/08/23		
LAWST	U	2003/02/04	2004/08/26	644	1678027	US007924AH66	50877	2004/08/23		
LAWST	U	2003/04/15	2006/07/05	722	141822	GB0004583539	5150	2006/07/04		
LAWST	U	2003/07/14	2009/08/18	778	4030661	USC03420AE35	41660	2009/08/17	CLSACT	
LAWST	U	2003/07/14	2009/08/18	778	4106546	US067901AN85	41660	2009/08/17	CLSACT	
LAWST	U	2003/09/02	2011/07/04	812	237713	FR0010033001	45908	2011/07/01	CLSACT	
LAWST	U	2003/09/02	2011/07/04	812	237999	FR0000495673	45908	2011/07/01	CLSACT	
LAWST	U	2003/09/02	2011/07/04	812	2124785	FR0010948232	45908	2011/07/01	CLSACT	
LAWST	U	2003/09/02	2011/07/04	812	3622087	FR0011215359	45908	2011/07/01	CLSACT	
LAWST	I	2003/11/04	2003/11/04	857	1977079	US0394832010	30076	2003/10/31		
LAWST	I	2003/11/05	2003/11/05	859	3942348	US143658AY86	60355	2004/02/06		
LAWST	I	2003/11/05	2003/11/05	859	3976355	US143658AZ51	60355	2004/02/06		
LAWST	U	2004/07/23	2008/05/08	1074	162066	US377372AA59	83207	2004/07/21	CLSACT	
LAWST	U	2004/07/23	2008/05/08	1074	838441	US377372AC16	83207	2004/07/21	CLSACT	
LAWST	U	2004/07/23	2008/05/08	1074	984371	US377372AD98	83207	2004/07/21	CLSACT	
LAWST	U	2004/07/23	2008/05/08	1074	4001047	US377372AG20	83207	2004/07/21	CLSACT	
LAWST	U	2004/07/31	2008/02/02	1089	972267	US767754BL71	38393	2008/01/31	CLSACT	
LAWST	D	2004/12/14	2005/03/28	1247	184067	XS0060045472	36095	2004/12/13		
LAWST	D	2004/12/14	2005/03/28	1247	683852	XS0323955541	36095	2004/12/13		
LAWST	D	2004/12/20	2005/01/19	1272	258246	US717081AR42	37622	2005/01/14		
LAWST	D	2004/12/20	2005/01/19	1272	596590	XS0301010145	37622	2005/01/14		
LAWST	D	2004/12/20	2005/01/19	1272	736690	XS0336018832	37622	2005/01/14		
LAWST	D	2004/12/20	2005/01/19	1272	1364011	US717081CZ40	37622	2005/01/14		
LAWST	D	2004/12/20	2005/01/19	1272	1461406	XS0432070752	37622	2005/01/14		
LAWST	D	2004/12/20	2005/01/19	1272	4047710	US717081DG59	37622	2005/01/14		
LAWST	I	2005/01/31	2005/01/31	1325	3947147	US278865AP56	32631	2005/01/28		
LAWST	I	2005/01/31	2005/01/31	1325	4423836	US278865AQ30	32631	2005/01/28		
LAWST	U	2005/03/04	2006/01/25	1380	983737	US09062XAB91	34575	2006/01/23		
LAWST	D	2005/03/25	2005/03/29	1419	144016	XS0103349774	6164	2005/06/22		
LAWST	D	2005/03/25	2005/03/29	1419	144086	US92857WAF77	6164	2005/06/22		
LAWST	D	2005/03/25	2005/03/29	1419	155245	XS0162614167	6164	2005/06/22		
LAWST	D	2005/03/25	2005/03/29	1419	272903	US92857WAG50	6164	2005/06/22		
LAWST	D	2005/03/25	2005/03/29	1419	305623	XS0236598164	6164	2005/06/22		
LAWST	D	2005/03/25	2005/03/29	1419	376640	US92857WAM29	6164	2005/06/22		
LAWST	D	2005/03/25	2005/03/29	1419	379683	XS0257808500	6164	2005/06/22		
LAWST	D	2005/03/25	2005/03/29	1419	428697	XS0266760965	6164	2005/06/22		
LAWST	D	2005/03/25	2005/03/29	1419	593696	XS0304458564	6164	2005/06/22		
LAWST	D	2005/03/25	2005/03/29	1419	3981332	US92857WBA71	6164	2005/06/22		
LAWST	U	2005/05/03	2010/09/10	1463	2435555	USU05258AC98	30297	2010/09/09	CLSACT	
LAWST	I	2005/05/09	2005/05/09	1471	187685	US136447AW96	49516	2005/05/06		
LAWST	U	2005/06/11	2009/02/05	1509	75532	US6516396016	36821	2009/02/04	CLSACT	
LAWST	U	2005/06/11	2009/02/05	1509	968768	US651639AH91	36821	2009/02/04	CLSACT	
LAWST	U	2005/07/21	2009/06/17	1535	183214	XS0097093636	32545	2009/06/16		
LAWST	U	2005/07/21	2009/06/17	1535	443682	US263534BM02	32545	2009/06/16		
LAWST	I	2005/10/27	2005/10/27	1764	415672	DE000A0C4ZE3	20180	2005/10/26		
LAWST	U	2006/02/03	2007/08/31	1806	4053057	ES0273516007	50762	2007/08/30	CLSACT	
LAWST	U	2006/02/21	2011/04/26	1814	183457	XS0108573170	31574	2011/04/25	CLSACT	
LAWST	U	2006/02/21	2011/04/26	1814	1347368	US191219BV55	31574	2011/04/25	CLSACT	
LAWST	I	2006/04/21	2006/04/21	1842	1474761	XS0435953186	46116	2006/04/20		
LAWST	I	2006/04/21	2006/04/21	1842	1541246	XS0401358550	46116	2006/04/20		
LAWST	U	2006/06/10	2006/06/14	1859	3572196	US98416JAB61	91206	2006/06/13		
LAWST	I	2007/04/28	2007/04/28	1940	183290	XS0147372949	72598	2007/04/26	CLSACT	
LAWST	U	2007/05/14	2007/09/18	1976	4047972	US666807BF88	36928	2007/09/13		
LAWST	I	2007/06/04	2007/06/04	2000	5455537	US40434ABD00	94745	2007/05/31		
LAWST	U	2007/06/11	2008/05/10	2010	5456063	XS1574955776	75718	2008/05/09	CLSACT	
LAWST	U	2007/06/11	2008/05/10	2010	5455900	XS1574955420	75718	2008/05/09	CLSACT	
LAWST	U	2007/06/11	2008/05/10	2010	5455904	XS1574956824	75718	2008/05/09	CLSACT	
LAWST	U	2007/07/14	2007/11/01	2076	1744860	US713448BM92	37583	2007/10/31		
LAWST	U	2007/07/14	2007/11/01	2076	4498950	US713448CR70	37583	2007/10/31		
LAWST	U	2007/07/14	2007/11/01	2076	4557822	US713448CV82	37583	2007/10/31		
LAWST	I	2007/08/01	2007/08/01	2113	1188994	US319963AP91	33294	2007/07/31	CLSACT	
LAWST	I	2007/08/04	2007/08/04	2130	977396	US565849AD85	57201	2007/08/03		
LAWST	I	2007/08/23	2007/08/23	2161	5455951	US88059GBJ76	76038	2007/08/22	CLSACT	
LAWST	I	2007/08/23	2007/08/23	2161	5455974	US88059GBH11	76038	2007/08/22	CLSACT	
LAWST	I	2007/08/23	2007/08/23	2161	5455980	US88059GBG38	76038	2007/08/22	CLSACT	
LAWST	I	2007/08/23	2007/08/23	2161	5455985	US88059GBF54	76038	2007/08/22	CLSACT	
LAWST	I	2007/08/23	2007/08/23	2161	5456022	US88059GBE89	76038	2007/08/22	CLSACT	
LAWST	I	2007/08/23	2007/08/23	2161	5456038	US88059GBD07	76038	2007/08/22	CLSACT	
LAWST	I	2007/08/23	2007/08/23	2161	5456046	US88059GBC24	76038	2007/08/22	CLSACT	
LAWST	I	2007/09/21	2007/09/21	2207	137442	XS0099136532	4290	2007/09/21		
LAWST	I	2007/09/21	2007/09/21	2207	150483	GB0008774209	4290	2007/09/21		
LAWST	U	2007/09/19	2009/11/26	2202	964513	US268648AM47	32755	2009/11/25	CLSACT	
LAWST	U	2007/09/26	2008/06/06	2222	1369632	US88732JAR95	106854	2008/06/05	CLSACT	
LAWST	U	2007/10/13	2009/02/07	2256	1231939	US02209SAC70	37649	2009/02/06	CLSACT	
LAWST	U	2007/10/16	2008/12/18	2266	1295173	US126408GQ05	32027	2008/12/17	CLSACT	
LAWST	U	2007/10/27	2007/12/28	2297	977531	US461202AB98	35030	2007/12/24	CLSACT	
LAWST	U	2007/11/01	2009/11/05	2311	254036	US48666KAM18	35290	2009/11/04	CLSACT	
LAWST	I	2007/11/14	2007/11/14	2334	185519	XS0131858838	10977	2007/11/12	CLSACT	
LAWST	I	2007/11/14	2007/11/14	2334	269849	XS0223268136	10977	2007/11/12	CLSACT	
LAWST	I	2007/11/14	2007/11/14	2334	269853	XS0223267591	10977	2007/11/12	CLSACT	
LAWST	I	2007/11/14	2007/11/14	2334	432501	AU0000TLSHA5	10977	2007/11/12	CLSACT	
LAWST	I	2007/11/14	2007/11/14	2334	1162121	CH0045478770	10977	2007/11/12	CLSACT	
LAWST	I	2007/11/14	2007/11/14	2334	2598074	USQ8975NAB12	10977	2007/11/12	CLSACT	
LAWST	U	2007/11/15	2009/10/07	2339	742747	CH0035703021	46738	2009/10/02	CLSACT	
LAWST	U	2007/11/15	2009/10/07	2339	2545922	US80105NAD75	46738	2009/10/02	CLSACT	
LAWST	U	2007/11/15	2009/10/07	2339	4606710	FR0012969012	46738	2009/10/02	CLSACT	
LAWST	I	2007/11/19	2007/11/19	2344	839206	US428040CA50	34309	2007/11/16	CLSACT	
LAWST	U	2007/11/23	2007/12/15	2355	964853	US22025YAH36	31903	2007/12/13		
LAWST	I	2008/01/04	2008/01/04	2397	685860	US02364WAH88	57353	2008/01/03		
LAWST	I	2008/01/04	2008/01/04	2397	977196	US02364WAN56	57353	2008/01/03		
LAWST	I	2008/01/04	2008/01/04	2397	3142316	US02364WBC82	57353	2008/01/03		
LAWST	I	2008/01/04	2008/01/04	2397	3517085	XS0731597505	57353	2008/01/03		
LAWST	U	2008/01/09	2010/03/31	2405	4104860	US270321AE21	32577	2010/03/30		
LAWST	I	2008/01/30	2008/01/30	2430	65376	CA87425E4004	43623	2008/01/25		
LAWST	I	2008/02/06	2008/02/06	2446	731133	US46185RAK68	35048	2008/02/05		
LAWST	D	2008/02/21	2008/10/31	2460	2356819	USU72068AA41	37701	2008/02/20		
LAWST	D	2008/02/21	2008/10/31	2460	3551602	US72147KAB44	37701	2008/02/20		
LAWST	I	2008/02/26	2008/02/26	2462	166947	XS0137454392	32421	2008/02/25		
LAWST	I	2008/02/26	2008/02/26	2462	167020	XS0171325557	32421	2008/02/25		
LAWST	I	2008/02/26	2008/02/26	2462	167026	XS0193310249	32421	2008/02/25		
LAWST	I	2008/02/26	2008/02/26	2462	983312	US260543BV48	32421	2008/02/25		
LAWST	I	2008/03/03	2008/03/03	2472	170532	CH0008011048	54610	2008/02/27		
LAWST	I	2008/03/21	2008/03/21	2497	255621	US29273RAB50	90176	2008/03/20		
LAWST	U	2008/03/29	2009/04/24	2510	442959	XS0274112076	88972	2009/04/23		
LAWST	U	2008/03/29	2009/04/24	2510	1337492	US481247AE41	88972	2009/04/23		
LAWST	U	2008/03/29	2009/04/24	2510	5456088	XS1692873760	88972	2009/04/23		
LAWST	I	2008/04/10	2008/04/10	2521	1442847	US20825CAT18	57745	2008/04/09		
LAWST	I	2008/04/10	2008/04/10	2521	1496672	US20825CAS35	57745	2008/04/09		
LAWST	U	2008/04/26	2008/10/11	2545	899462	XS0365663961	84383	2008/10/10	CLSACT	
LAWST	I	2008/05/08	2008/05/08	2560	259873	US52517PXM84	80558	2008/05/06	CLSACT	
LAWST	I	2008/06/13	2008/06/13	2592	970350	US368710AG46	33739	2008/06/11	CLSACT	
LAWST	I	2008/06/24	2008/06/24	2601	1441900	US01741RAD44	29615	2008/06/23	CLSACT	
LAWST	I	2008/07/19	2008/07/19	2615	728451	US52736RAV42	83681	2008/07/18	CLSACT	
LAWST	U	2008/09/20	2008/09/24	2652	3035107	US552715AC85	36072	2008/09/22	CLSACT	
LAWST	U	2008/11/20	2008/12/02	2676	4249079	USP64655AB20	64239	2008/12/01	CLSACT	
LAWST	I	2008/12/22	2008/12/22	2697	3551503	US35671DAW56	33593	2008/12/17	CLSACT	
LAWST	I	2008/12/22	2008/12/22	2697	3994403	USU31386AE22	33593	2008/12/17	CLSACT	
LAWST	I	2008/12/22	2008/12/22	2697	4383546	US35671DBK00	33593	2008/12/17	CLSACT	
LAWST	I	2009/01/16	2009/01/16	2706	2336197	US007903AU15	29453	2009/01/15		
LAWST	I	2009/03/03	2009/03/03	2729	1203221	US25153U2042	125408	2009/03/02		
LAWST	U	2009/02/10	2009/02/20	2723	60436	NL0000303576	47084	2009/02/18	CLSACT	
LAWST	U	2009/02/10	2009/02/20	2723	183487	NL0000122869	47084	2009/02/18	CLSACT	
LAWST	U	2009/02/10	2009/02/20	2723	724497	US456837AC74	47084	2009/02/18	CLSACT	
LAWST	U	2009/02/10	2009/02/20	2723	1124566	XS0385699029	47084	2009/02/18	CLSACT	
LAWST	U	2009/02/10	2009/02/20	2723	1235846	US4568377075	47084	2009/02/18	CLSACT	
LAWST	U	2009/02/10	2009/02/20	2723	3367232	XS0721807633	47084	2009/02/18	CLSACT	
LAWST	U	2009/02/10	2009/02/20	2723	3700451	XS0770193919	47084	2009/02/18	CLSACT	
LAWST	U	2009/02/10	2009/02/20	2723	3700567	XS0770194487	47084	2009/02/18	CLSACT	
LAWST	U	2009/02/10	2009/02/20	2723	3912367	XS0770193836	47084	2009/02/18	CLSACT	
LAWST	I	2009/05/05	2009/05/05	2769	718577	US6285302062	36521	2009/05/04		
LAWST	I	2009/05/08	2009/05/08	2774	2452763	US883556AY80	39716	2009/05/07		
LAWST	I	2009/12/18	2009/12/18	2913	983499	US98385XAL01	31994	2009/12/17	CLSACT	
LAWST	U	2010/10/08	2010/10/14	3048	1410447	US73755LAE74	43248	2010/10/13	CLSACT	
LAWST	U	2011/02/17	2011/02/22	3125	1839337	US743410AY82	79056	2011/02/21	CLSACT	
LAWST	I	2011/11/01	2011/11/01	3270	837225	US879403AS24	57565	2011/10/31	CLSACT	
LAWST	U	2012/05/25	2012/06/14	3364	1746827	US631103AC20	65539	2012/06/13	CLSACT	
EDI_ENDOFFILE
